Krishnakant A – math2
…
# Produce some forecasts
aus_retail %>%
  filter(`Series ID`=="A3349640L") %>%
  model(ETS(Turnover)) %>%
  forecast(h = "2 years")

# A fable: 24 x 6 [1M]
# Key:     State, Industry, .model [1]
   State    Industry                          .model    Month     Turnover .mean
   <chr>    <chr>                             <chr>     <mth>       <dist> <dbl>
 1 Victoria Cafes, restaurants and catering … ETS(T… 2019 Jan  N(608, 978)  608.
 2 Victoria Cafes, restaurants and catering … ETS(T… 2019 Feb N(551, 1129)  551.
 3 Victoria Cafes, restaurants and catering … ETS(T… 2019 Mar N(622, 1856)  622.
 4 Victoria Cafes, restaurants and catering … ETS(T… 2019 Apr N(609, 2190)  609.
 5 Victoria Cafes, restaurants and catering … ETS(T… 2019 May N(602, 2539)  602.
 6 Victoria Cafes, restaurants and catering … ETS(T… 2019 Jun N(577, 2704)  577.
 7 Victoria Cafes, restaurants and catering … ETS(T… 2019 Jul N(607, 3413)  607.
 8 Victoria Cafes, restaurants and catering … ETS(T… 2019 Aug N(626, 4072)  626.
 9 Victoria Cafes, restaurants and catering … ETS(T… 2019 Sep N(614, 4358)  614.
10 Victoria Cafes, restaurants and catering … ETS(T… 2019 Oct N(624, 4942)  624.
# … with 14 more rows
